[{
  "id" : "f9c58c7b-2b20-4416-8722-511e49936d43",
  "httpRequest" : {
    "method" : "POST",
    "path" : "/api/v2/teams",
    "headers" : {
      "Accept" : [ "application/json" ],
      "JAVA-TEST-NAME" : [ "Get_a_list_of_all_incident_teams_returns_OK_response" ],
      "DD-OPERATION-ID" : [ "createIncidentTeam" ],
      "Content-Type" : [ "application/json" ]
    },
    "keepAlive" : false,
    "secure" : true,
    "body" : {
      "type" : "JSON",
      "json" : "{\"data\":{\"attributes\":{\"name\":\"Test-Get_a_list_of_all_incident_teams_returns_OK_response-1618083780\"},\"type\":\"teams\"}}"
    }
  },
  "times" : {
    "remainingTimes" : 1
  },
  "timeToLive" : {
    "unlimited" : true
  },
  "httpResponse" : {
    "statusCode" : 201,
    "reasonPhrase" : "Created",
    "headers" : {
      "Date" : [ "Sat, 10 Apr 2021 19:43:01 GMT" ],
      "Content-Type" : [ "application/json" ],
      "Content-Length" : [ "998" ],
      "Connection" : [ "keep-alive" ],
      "pragma" : [ "no-cache" ],
      "cache-control" : [ "no-cache" ],
      "x-dd-version" : [ "35.4281284" ],
      "x-ratelimit-limit" : [ "100" ],
      "x-ratelimit-period" : [ "60" ],
      "x-ratelimit-reset" : [ "59" ],
      "x-ratelimit-remaining" : [ "99" ],
      "x-dd-debug" : [ "twvpGlmuom5y6A0pjGtXzTf554cmwJgTcCZ71fK4H/RDi+v5ehBK0zQiRcTJQG5C" ],
      "x-content-type-options" : [ "nosniff" ],
      "strict-transport-security" : [ "max-age=15724800;" ],
      "content-security-policy" : [ "frame-ancestors 'self'; report-uri https://api.datadoghq.com/csp-report" ],
      "x-frame-options" : [ "SAMEORIGIN" ]
    },
    "body" : "{\"included\":[{\"type\":\"users\",\"id\":\"3ad549bf-eba0-11e9-a77a-0705486660d0\",\"attributes\":{\"name\":null,\"handle\":\"frog@datadoghq.com\",\"created_at\":\"2019-10-02T08:15:39.795051+00:00\",\"modified_at\":\"2020-06-15T12:33:12.884459+00:00\",\"email\":\"frog@datadoghq.com\",\"icon\":\"https://secure.gravatar.com/avatar/28a16dfe36e73b60c1d55872cb0f1172?s=48&d=retro\",\"title\":null,\"verified\":true,\"service_account\":false,\"disabled\":false,\"allowed_login_methods\":[],\"status\":\"Active\"},\"relationships\":{\"org\":{\"data\":{\"type\":\"orgs\",\"id\":\"4dee724d-00cc-11ea-a77b-570c9d03c6c5\"}}}}],\"data\":{\"type\":\"teams\",\"id\":\"60b74219-cf5d-5988-b501-5e3217845f53\",\"attributes\":{\"name\":\"Test-Get_a_list_of_all_incident_teams_returns_OK_response-1618083780\",\"created\":\"2021-04-10T19:43:01.105185+00:00\",\"modified\":\"2021-04-10T19:43:01.105185+00:00\"},\"relationships\":{\"last_modified_by\":{\"data\":{\"type\":\"users\",\"id\":\"3ad549bf-eba0-11e9-a77a-0705486660d0\"}},\"created_by\":{\"data\":{\"type\":\"users\",\"id\":\"3ad549bf-eba0-11e9-a77a-0705486660d0\"}}}}}"
  }
}, {
  "id" : "a5bbc30b-04a8-4799-981e-8c8d99bf614f",
  "httpRequest" : {
    "method" : "GET",
    "path" : "/api/v2/teams",
    "queryStringParameters" : {
      "filter" : [ "Test-Get_a_list_of_all_incident_teams_returns_OK_response-1618083780" ]
    },
    "headers" : {
      "Accept" : [ "application/json" ],
      "JAVA-TEST-NAME" : [ "Get_a_list_of_all_incident_teams_returns_OK_response" ],
      "DD-OPERATION-ID" : [ "listIncidentTeams" ],
      "content-length" : [ "0" ]
    },
    "keepAlive" : false,
    "secure" : true
  },
  "times" : {
    "remainingTimes" : 1
  },
  "timeToLive" : {
    "unlimited" : true
  },
  "httpResponse" : {
    "statusCode" : 200,
    "reasonPhrase" : "OK",
    "headers" : {
      "Date" : [ "Sat, 10 Apr 2021 19:43:01 GMT" ],
      "Content-Type" : [ "application/json" ],
      "Connection" : [ "keep-alive" ],
      "vary" : [ "Accept-Encoding" ],
      "pragma" : [ "no-cache" ],
      "cache-control" : [ "no-cache" ],
      "x-dd-version" : [ "35.4281284" ],
      "x-ratelimit-limit" : [ "100" ],
      "x-ratelimit-period" : [ "60" ],
      "x-ratelimit-reset" : [ "59" ],
      "x-ratelimit-remaining" : [ "99" ],
      "x-dd-debug" : [ "dCmL/3rURV6BPeaqeP3Rxigq41m5CAb17XjrRE42uZ01zpr07HVhbL5/3TWMkvgu" ],
      "x-content-type-options" : [ "nosniff" ],
      "strict-transport-security" : [ "max-age=15724800;" ],
      "content-security-policy" : [ "frame-ancestors 'self'; report-uri https://api.datadoghq.com/csp-report" ],
      "x-frame-options" : [ "SAMEORIGIN" ],
      "content-length" : [ "544" ]
    },
    "body" : "{\"meta\":{\"sort\":\"ASC\",\"pagination\":{\"total\":1404,\"size\":1,\"next_offset\":1,\"offset\":0},\"total\":1404},\"data\":[{\"type\":\"teams\",\"id\":\"60b74219-cf5d-5988-b501-5e3217845f53\",\"attributes\":{\"name\":\"Test-Get_a_list_of_all_incident_teams_returns_OK_response-1618083780\",\"created\":\"2021-04-10T19:43:01.105185+00:00\",\"modified\":\"2021-04-10T19:43:01.105185+00:00\"},\"relationships\":{\"last_modified_by\":{\"data\":{\"type\":\"users\",\"id\":\"3ad549bf-eba0-11e9-a77a-0705486660d0\"}},\"created_by\":{\"data\":{\"type\":\"users\",\"id\":\"3ad549bf-eba0-11e9-a77a-0705486660d0\"}}}}]}"
  }
}, {
  "id" : "6b00027c-eb23-4ba3-ab22-30e3e5ee2859",
  "httpRequest" : {
    "method" : "DELETE",
    "path" : "/api/v2/teams/60b74219-cf5d-5988-b501-5e3217845f53",
    "headers" : {
      "Accept" : [ "application/json" ],
      "JAVA-TEST-NAME" : [ "Get_a_list_of_all_incident_teams_returns_OK_response" ],
      "DD-OPERATION-ID" : [ "deleteIncidentTeam" ],
      "Content-Type" : [ "application/json" ]
    },
    "keepAlive" : false,
    "secure" : true
  },
  "times" : {
    "remainingTimes" : 1
  },
  "timeToLive" : {
    "unlimited" : true
  },
  "httpResponse" : {
    "statusCode" : 404,
    "reasonPhrase" : "Not Found"
  }
}]