[{
  "id" : "f876c975-67f1-4066-a2ff-8b4e1864578e",
  "httpRequest" : {
    "method" : "POST",
    "path" : "/api/v2/services",
    "headers" : {
      "Accept" : [ "application/json" ],
      "JAVA-TEST-NAME" : [ "Get_a_list_of_all_incident_services_returns_OK_response" ],
      "DD-OPERATION-ID" : [ "createIncidentService" ],
      "Content-Type" : [ "application/json" ]
    },
    "keepAlive" : false,
    "secure" : true,
    "body" : {
      "type" : "JSON",
      "json" : "{\"data\":{\"attributes\":{\"name\":\"java-Get_a_list_of_all_in-1608034718\"},\"type\":\"services\"}}"
    }
  },
  "times" : {
    "remainingTimes" : 1
  },
  "timeToLive" : {
    "unlimited" : true
  },
  "httpResponse" : {
    "statusCode" : 201,
    "reasonPhrase" : "Created",
    "headers" : {
      "Date" : [ "Tue, 15 Dec 2020 12:18:39 GMT" ],
      "Content-Type" : [ "application/json" ],
      "Content-Length" : [ "920" ],
      "Connection" : [ "keep-alive" ],
      "Pragma" : [ "no-cache" ],
      "Cache-Control" : [ "no-cache" ],
      "Set-Cookie" : [ "DD-PSHARD=233; Max-Age=604800; Path=/; expires=Tue, 22-Dec-2020 12:18:39 GMT; secure; HttpOnly" ],
      "X-DD-VERSION" : [ "35.3543155" ],
      "X-RateLimit-Limit" : [ "100" ],
      "X-RateLimit-Period" : [ "60" ],
      "X-RateLimit-Reset" : [ "21" ],
      "X-RateLimit-Remaining" : [ "99" ],
      "X-DD-Debug" : [ "Xg/YZweB8L/9y2bk9dLfKv6mTe53iWJN13eGXk6rwnDvTKZPuXf1i9AdXnCIzJ+B" ],
      "DD-POOL" : [ "dogweb" ],
      "Content-Security-Policy" : [ "frame-ancestors 'self'; report-uri https://api.datadoghq.com/csp-report" ],
      "X-Frame-Options" : [ "SAMEORIGIN" ],
      "X-Content-Type-Options" : [ "nosniff" ],
      "Strict-Transport-Security" : [ "max-age=15724800;" ]
    },
    "cookies" : {
      "DD-PSHARD" : "233"
    },
    "body" : "{\"included\":[{\"type\":\"users\",\"id\":\"3ad549bf-eba0-11e9-a77a-0705486660d0\",\"attributes\":{\"name\":null,\"handle\":\"frog@datadoghq.com\",\"created_at\":\"2019-10-02T08:15:39.795051+00:00\",\"email\":\"frog@datadoghq.com\",\"icon\":\"https://secure.gravatar.com/avatar/28a16dfe36e73b60c1d55872cb0f1172?s=48&d=retro\",\"title\":null,\"verified\":true,\"service_account\":false,\"disabled\":false,\"allowed_login_methods\":[],\"status\":\"Active\"},\"relationships\":{\"org\":{\"data\":{\"type\":\"orgs\",\"id\":\"4dee724d-00cc-11ea-a77b-570c9d03c6c5\"}}}}],\"data\":{\"type\":\"services\",\"id\":\"665f7ad5-883e-5ba7-98b7-c48a615427ff\",\"attributes\":{\"name\":\"java-Get_a_list_of_all_in-1608034718\",\"created\":\"2020-12-15T12:18:39.077967+00:00\",\"modified\":\"2020-12-15T12:18:39.077967+00:00\"},\"relationships\":{\"last_modified_by\":{\"data\":{\"type\":\"users\",\"id\":\"3ad549bf-eba0-11e9-a77a-0705486660d0\"}},\"created_by\":{\"data\":{\"type\":\"users\",\"id\":\"3ad549bf-eba0-11e9-a77a-0705486660d0\"}}}}}"
  }
}, {
  "id" : "58a16ac1-b787-4e34-9769-c3d9a62dfea6",
  "httpRequest" : {
    "method" : "GET",
    "path" : "/api/v2/services",
    "queryStringParameters" : {
      "filter" : [ "java-Get_a_list_of_all_in-1608034718" ]
    },
    "headers" : {
      "Accept" : [ "application/json" ],
      "JAVA-TEST-NAME" : [ "Get_a_list_of_all_incident_services_returns_OK_response" ],
      "DD-OPERATION-ID" : [ "listIncidentServices" ],
      "content-length" : [ "0" ]
    },
    "keepAlive" : false,
    "secure" : true
  },
  "times" : {
    "remainingTimes" : 1
  },
  "timeToLive" : {
    "unlimited" : true
  },
  "httpResponse" : {
    "statusCode" : 200,
    "reasonPhrase" : "OK",
    "headers" : {
      "Date" : [ "Tue, 15 Dec 2020 12:18:39 GMT" ],
      "Content-Type" : [ "application/json" ],
      "Connection" : [ "keep-alive" ],
      "Vary" : [ "Accept-Encoding" ],
      "Pragma" : [ "no-cache" ],
      "Cache-Control" : [ "no-cache" ],
      "Set-Cookie" : [ "DD-PSHARD=233; Max-Age=604800; Path=/; expires=Tue, 22-Dec-2020 12:18:39 GMT; secure; HttpOnly" ],
      "X-DD-VERSION" : [ "35.3543155" ],
      "X-RateLimit-Limit" : [ "100" ],
      "X-RateLimit-Period" : [ "60" ],
      "X-RateLimit-Reset" : [ "21" ],
      "X-RateLimit-Remaining" : [ "99" ],
      "X-DD-Debug" : [ "WyPl7Uohyy2nhJ7RWrq85UM5TEMaIEIfRwQveR0xpNBygzZEP8S/qWubDM7SoNjW" ],
      "DD-POOL" : [ "dogweb" ],
      "Content-Security-Policy" : [ "frame-ancestors 'self'; report-uri https://api.datadoghq.com/csp-report" ],
      "X-Frame-Options" : [ "SAMEORIGIN" ],
      "X-Content-Type-Options" : [ "nosniff" ],
      "Strict-Transport-Security" : [ "max-age=15724800;" ],
      "content-length" : [ "515" ]
    },
    "cookies" : {
      "DD-PSHARD" : "233"
    },
    "body" : "{\"meta\":{\"sort\":\"ASC\",\"pagination\":{\"total\":7357,\"size\":1,\"next_offset\":1,\"offset\":0},\"total\":7357},\"data\":[{\"type\":\"services\",\"id\":\"665f7ad5-883e-5ba7-98b7-c48a615427ff\",\"attributes\":{\"name\":\"java-Get_a_list_of_all_in-1608034718\",\"created\":\"2020-12-15T12:18:39.077967+00:00\",\"modified\":\"2020-12-15T12:18:39.077967+00:00\"},\"relationships\":{\"last_modified_by\":{\"data\":{\"type\":\"users\",\"id\":\"3ad549bf-eba0-11e9-a77a-0705486660d0\"}},\"created_by\":{\"data\":{\"type\":\"users\",\"id\":\"3ad549bf-eba0-11e9-a77a-0705486660d0\"}}}}]}"
  }
}, {
  "id" : "411ec387-fe14-4992-a1ec-b379278d7f0d",
  "httpRequest" : {
    "method" : "DELETE",
    "path" : "/api/v2/services/665f7ad5-883e-5ba7-98b7-c48a615427ff",
    "headers" : {
      "Accept" : [ "application/json" ],
      "JAVA-TEST-NAME" : [ "Get_a_list_of_all_incident_services_returns_OK_response" ],
      "DD-OPERATION-ID" : [ "deleteIncidentService" ],
      "Content-Type" : [ "application/json" ]
    },
    "keepAlive" : false,
    "secure" : true
  },
  "times" : {
    "remainingTimes" : 1
  },
  "timeToLive" : {
    "unlimited" : true
  },
  "httpResponse" : {
    "statusCode" : 204,
    "reasonPhrase" : "No Content",
    "headers" : {
      "Date" : [ "Tue, 15 Dec 2020 12:18:40 GMT" ],
      "Content-Type" : [ "application/json" ],
      "Content-Length" : [ "0" ],
      "Connection" : [ "keep-alive" ],
      "Pragma" : [ "no-cache" ],
      "Cache-Control" : [ "no-cache" ],
      "Set-Cookie" : [ "DD-PSHARD=233; Max-Age=604800; Path=/; expires=Tue, 22-Dec-2020 12:18:40 GMT; secure; HttpOnly" ],
      "X-DD-VERSION" : [ "35.3543155" ],
      "X-RateLimit-Limit" : [ "100" ],
      "X-RateLimit-Period" : [ "60" ],
      "X-RateLimit-Reset" : [ "20" ],
      "X-RateLimit-Remaining" : [ "99" ],
      "X-DD-Debug" : [ "1KMr27QHAQHDfYPOMxdkaV+JBh/1ku8yD6KIlLr2d217iUuzksir9gh+Nfb7tVhq" ],
      "DD-POOL" : [ "dogweb" ],
      "Content-Security-Policy" : [ "frame-ancestors 'self'; report-uri https://api.datadoghq.com/csp-report" ],
      "X-Frame-Options" : [ "SAMEORIGIN" ],
      "X-Content-Type-Options" : [ "nosniff" ],
      "Strict-Transport-Security" : [ "max-age=15724800;" ]
    },
    "cookies" : {
      "DD-PSHARD" : "233"
    }
  }
}]