[
  {
    "httpRequest": {
      "body": {
        "type": "JSON",
        "json": "{\"data\":{\"attributes\":{\"name\":\"Test-Get_a_list_of_all_incident_services_returns_OK_response-1618491695\"},\"type\":\"services\"}}"
      },
      "headers": {
        "JAVA-TEST-NAME": [
          "Get_a_list_of_all_incident_services_returns_OK_response"
        ]
      },
      "method": "POST",
      "path": "/api/v2/services",
      "keepAlive": false,
      "secure": true
    },
    "httpResponse": {
      "body": "{\"included\":[{\"type\":\"users\",\"id\":\"3ad549bf-eba0-11e9-a77a-0705486660d0\",\"attributes\":{\"name\":null,\"handle\":\"frog@datadoghq.com\",\"created_at\":\"2019-10-02T08:15:39.795051+00:00\",\"modified_at\":\"2020-06-15T12:33:12.884459+00:00\",\"email\":\"frog@datadoghq.com\",\"icon\":\"https://secure.gravatar.com/avatar/28a16dfe36e73b60c1d55872cb0f1172?s=48&d=retro\",\"title\":null,\"verified\":true,\"service_account\":false,\"disabled\":false,\"allowed_login_methods\":[],\"status\":\"Active\"},\"relationships\":{\"org\":{\"data\":{\"type\":\"orgs\",\"id\":\"4dee724d-00cc-11ea-a77b-570c9d03c6c5\"}}}}],\"data\":{\"type\":\"services\",\"id\":\"6fc98fcf-38df-5de5-8350-03be88d21413\",\"attributes\":{\"name\":\"Test-Get_a_list_of_all_incident_services_returns_OK_response-1618491695\",\"created\":\"2021-04-15T13:01:35.360635+00:00\",\"modified\":\"2021-04-15T13:01:35.360635+00:00\"},\"relationships\":{\"last_modified_by\":{\"data\":{\"type\":\"users\",\"id\":\"3ad549bf-eba0-11e9-a77a-0705486660d0\"}},\"created_by\":{\"data\":{\"type\":\"users\",\"id\":\"3ad549bf-eba0-11e9-a77a-0705486660d0\"}}}}}",
      "headers": {
        "Content-Type": [
          "application/json"
        ]
      },
      "statusCode": 201,
      "reasonPhrase": "Created"
    },
    "times": {
      "remainingTimes": 1
    },
    "timeToLive": {
      "unlimited": true
    },
    "id": "e7c54ad6-10a3-fc8f-dbcc-0e75901bbc6f"
  },
  {
    "httpRequest": {
      "headers": {
        "JAVA-TEST-NAME": [
          "Get_a_list_of_all_incident_services_returns_OK_response"
        ]
      },
      "method": "GET",
      "path": "/api/v2/services",
      "keepAlive": false,
      "secure": true
    },
    "httpResponse": {
      "body": "{\"meta\":{\"sort\":\"ASC\",\"pagination\":{\"total\":7459,\"size\":1,\"next_offset\":1,\"offset\":0},\"total\":7459},\"data\":[{\"type\":\"services\",\"id\":\"6fc98fcf-38df-5de5-8350-03be88d21413\",\"attributes\":{\"name\":\"Test-Get_a_list_of_all_incident_services_returns_OK_response-1618491695\",\"created\":\"2021-04-15T13:01:35.360635+00:00\",\"modified\":\"2021-04-15T13:01:35.360635+00:00\"},\"relationships\":{\"last_modified_by\":{\"data\":{\"type\":\"users\",\"id\":\"3ad549bf-eba0-11e9-a77a-0705486660d0\"}},\"created_by\":{\"data\":{\"type\":\"users\",\"id\":\"3ad549bf-eba0-11e9-a77a-0705486660d0\"}}}}]}",
      "headers": {
        "Content-Type": [
          "application/json"
        ]
      },
      "statusCode": 200,
      "reasonPhrase": "OK"
    },
    "times": {
      "remainingTimes": 1
    },
    "timeToLive": {
      "unlimited": true
    },
    "id": "b786f1bb-ee48-a736-0516-1740c371080d"
  },
  {
    "httpRequest": {
      "headers": {
        "JAVA-TEST-NAME": [
          "Get_a_list_of_all_incident_services_returns_OK_response"
        ]
      },
      "method": "DELETE",
      "path": "/api/v2/services/6fc98fcf-38df-5de5-8350-03be88d21413",
      "keepAlive": false,
      "secure": true
    },
    "httpResponse": {
      "headers": {
        "Content-Type": [
          "application/json"
        ]
      },
      "statusCode": 204,
      "reasonPhrase": "No Content"
    },
    "times": {
      "remainingTimes": 1
    },
    "timeToLive": {
      "unlimited": true
    },
    "id": "7c8821f7-e670-6cb6-dc01-8d6c3060fcf9"
  }
]